{
  "dev": {
    "awscloudformation": {
      "AuthRoleName": "amplify-esp32-dev-12717-authRole",
      "UnauthRoleArn": "arn:aws:iam::752727404353:role/amplify-esp32-dev-12717-unauthRole",
      "AuthRoleArn": "arn:aws:iam::752727404353:role/amplify-esp32-dev-12717-authRole",
      "Region": "ap-northeast-1",
      "DeploymentBucketName": "amplify-esp32-dev-12717-deployment",
      "UnauthRoleName": "amplify-esp32-dev-12717-unauthRole",
      "StackName": "amplify-esp32-dev-12717",
      "StackId": "arn:aws:cloudformation:ap-northeast-1:752727404353:stack/amplify-esp32-dev-12717/8fc3c1b0-5c89-11ee-a11d-064d90bde3db",
      "AmplifyAppId": "d3oxbh9zw077mj"
    }
  }
}